[
  {
    "updated_at": "2014-12-23T06:00:00Z",
    "code": "1016",
    "name": "Backpackers"
  },
  {
    "updated_at": "2014-12-23T06:00:00Z",
    "code": "1015",
    "name": "Budget-Friendly"
  },
  {
    "updated_at": "2014-12-23T06:00:00Z",
    "code": "1014",
    "name": "Gay-Friendly"
  },
  {
    "updated_at": "2014-12-23T06:00:00Z",
    "code": "1013",
    "name": "Eco-Friendly"
  },
  {
    "updated_at": "2014-12-23T06:00:00Z",
    "code": "1012",
    "name": "Business"
  },
  {
    "updated_at": "2014-12-23T06:00:00Z",
    "code": "1011",
    "name": "Nature/Wildlife"
  },
  {
    "updated_at": "2014-12-23T06:00:00Z",
    "code": "1010",
    "name": "International"
  },
  {
    "updated_at": "2014-12-23T06:00:00Z",
    "code": "100f",
    "name": "Countryside"
  },
  {
    "updated_at": "2014-12-23T06:00:00Z",
    "code": "100e",
    "name": "City trip"
  },
  {
    "updated_at": "2014-12-23T06:00:00Z",
    "code": "100d",
    "name": "Shopping"
  },
  {
    "updated_at": "2014-12-23T06:00:00Z",
    "code": "100c",
    "name": "Mountains"
  },
  {
    "updated_at": "2014-12-23T06:00:00Z",
    "code": "100b",
    "name": "Castle"
  },
  {
    "updated_at": "2014-12-23T06:00:00Z",
    "code": "100a",
    "name": "Adventure"
  },
  {
    "updated_at": "2014-12-23T06:00:00Z",
    "code": "1009",
    "name": "Budget/Backpackers"
  },
  {
    "updated_at": "2014-12-23T06:00:00Z",
    "code": "1008",
    "name": "Luxury"
  },
  {
    "updated_at": "2014-12-23T06:00:00Z",
    "code": "1007",
    "name": "Design"
  },
  {
    "updated_at": "2014-12-23T06:00:00Z",
    "code": "1006",
    "name": "Family"
  },
  {
    "updated_at": "2014-12-23T06:00:00Z",
    "code": "1005",
    "name": "Gourmet"
  },
  {
    "updated_at": "2014-12-23T06:00:00Z",
    "code": "1004",
    "name": "Romance/Honeymoon"
  },
  {
    "updated_at": "2014-12-23T06:00:00Z",
    "code": "1003",
    "name": "Golf/Sports"
  },
  {
    "updated_at": "2014-12-23T06:00:00Z",
    "code": "1002",
    "name": "Spa/Relax"
  },
  {
    "updated_at": "2014-12-23T06:00:00Z",
    "code": "1001",
    "name": "Ski/Wintersports"
  },
  {
    "updated_at": "2014-12-23T06:00:00Z",
    "code": "1000",
    "name": "Beach/Seaside"
  }
]